[
  {
    "name": "Lock screen",
    "exec": "swaylock -C ~/.config/swaylock/config",
    "icon": "/home/dave/.config/nwg-launchers/nwgbar/images/lock.svg"
  },
  {
  	"name": "Suspend",
  	"exec": "sudo zzz",
  	"icon": "/home/dave/.config/nwg-launchers/nwgbar/images/suspend.svg"
  },
  {
    "name": "Logout",
    "exec": "loginctl terminate-user dave",
    "icon": "/home/dave/.config/nwg-launchers/nwgbar/images/logout.svg"
  },
  {
    "name": "Reboot",
    "exec": "loginctl reboot",
    "icon": "/home/dave/.config/nwg-launchers/nwgbar/images/reboot.svg"
  },
  {
    "name": "Shutdown",
    "exec": "loginctl poweroff",
    "icon": "/home/dave/.config/nwg-launchers/nwgbar/images/shutdown.svg"
  }
]
